id;name;location
1;"Kx1";"Hqc7"
2;"Ees6";"Libn0"
3;"Kfdm6";"Xfu1"
4;"Vzeil7";"Twq7"
5;"Jjormnd5";"Pupju3"
6;"Gmbkt3";"Kde3"
7;"Zz3";"Bzfekiz0"
8;"Webyyo1";"Ulupyp5"
9;"Vfy1";"Icaje0"
10;"Ntjr5";"Rq5"
