{
  "applications": ["Coopcycle"],
  "changelogDate": "20230409162520",
  "dto": "mapstruct",
  "embedded": false,
  "entityTableName": "cooperative",
  "fields": [
    {
      "fieldName": "name",
      "fieldType": "String",
      "fieldValidateRules": ["pattern", "required"],
      "fieldValidateRulesPattern": "^[A-Z][a-z]+\\d$"
    },
    {
      "fieldName": "location",
      "fieldType": "String",
      "fieldValidateRules": ["pattern", "required"],
      "fieldValidateRulesPattern": "^[A-Z][a-z]+\\d$"
    }
  ],
  "fluentMethods": true,
  "jpaMetamodelFiltering": false,
  "name": "Cooperative",
  "pagination": "infinite-scroll",
  "readOnly": false,
  "relationships": [
    {
      "otherEntityName": "societaire",
      "otherEntityRelationshipName": "coopname",
      "relationshipName": "socname",
      "relationshipType": "one-to-many",
      "relationshipValidateRules": "required"
    }
  ],
  "service": "serviceClass"
}
