{
  "applications": ["Coopcycle"],
  "changelogDate": "20230409162420",
  "dto": "mapstruct",
  "embedded": false,
  "entityTableName": "liste_course",
  "fields": [
    {
      "fieldName": "name",
      "fieldType": "String",
      "fieldValidateRules": ["pattern", "required"],
      "fieldValidateRulesPattern": "^[A-Z][a-z]+\\d$"
    },
    {
      "fieldName": "creationdate",
      "fieldType": "LocalDate",
      "fieldValidateRules": ["required"]
    },
    {
      "fieldName": "modificationdate",
      "fieldType": "LocalDate",
      "fieldValidateRules": ["required"]
    },
    {
      "fieldName": "totalItems",
      "fieldType": "Long",
      "fieldValidateRules": ["required"]
    },
    {
      "fieldName": "status",
      "fieldType": "Status",
      "fieldValidateRules": ["required"],
      "fieldValues": "COMPLETED,PROCESSING"
    }
  ],
  "fluentMethods": true,
  "jpaMetamodelFiltering": false,
  "name": "ListeCourse",
  "pagination": "infinite-scroll",
  "readOnly": false,
  "relationships": [
    {
      "otherEntityName": "client",
      "otherEntityRelationshipName": "listeCourse",
      "relationshipName": "listname",
      "relationshipType": "many-to-one",
      "relationshipValidateRules": "required"
    },
    {
      "otherEntityName": "article",
      "otherEntityRelationshipName": "listeCourse",
      "ownerSide": false,
      "relationshipName": "article",
      "relationshipType": "many-to-many"
    }
  ],
  "service": "serviceClass"
}
