{
  "applications": ["Coopcycle"],
  "changelogDate": "20230409162120",
  "dto": "mapstruct",
  "embedded": false,
  "entityTableName": "livreurs",
  "fields": [
    {
      "fieldName": "firstname",
      "fieldType": "String",
      "fieldValidateRules": ["pattern", "required"],
      "fieldValidateRulesPattern": "^[A-Z][a-z]+\\d$"
    },
    {
      "fieldName": "lastName",
      "fieldType": "String",
      "fieldValidateRules": ["pattern"],
      "fieldValidateRulesPattern": "^[A-Z][a-z]+\\d$"
    },
    {
      "fieldName": "vehicle",
      "fieldType": "String",
      "fieldValidateRules": ["required"]
    },
    {
      "fieldName": "age",
      "fieldType": "Long",
      "fieldValidateRules": ["min", "max", "required"],
      "fieldValidateRulesMax": "100",
      "fieldValidateRulesMin": "18"
    }
  ],
  "fluentMethods": true,
  "jpaMetamodelFiltering": false,
  "name": "Livreurs",
  "pagination": "infinite-scroll",
  "readOnly": false,
  "relationships": [
    {
      "otherEntityName": "client",
      "ownerSide": true,
      "relationshipName": "clientfirstname",
      "relationshipType": "one-to-one",
      "relationshipValidateRules": "required"
    },
    {
      "otherEntityName": "societaire",
      "ownerSide": true,
      "relationshipName": "socfirstname",
      "relationshipType": "one-to-one",
      "relationshipValidateRules": "required"
    }
  ],
  "service": "serviceClass"
}
